﻿ivre,ivre.wav,a-z
livre,livre.wav,a-z
libre,libre.wav,a-z
vibre,vibre.wav,a-z
tripe,tripe.wav,a-z
triple,triple.wav,a-z
sabre,sabre.wav,a-z
sacre,sacre.wav,a-z
dire,dire.wav,a-z
lire,lire.wav,a-z
brume,brume.wav,a-z
brime,brime.wav,a-z
rime,rime.wav,a-z
mime,mime.wav,a-z
pitre,pitre.wav,a-z
litre,litre.wav,a-z
