﻿hello,hello.wav,a-z
hi,hi.wav,a-z
good morning,good morning.wav,a-z
goodbye,goodbye.wav,a-z
see you,see you.wav,a-z
good night,good night.wav,a-z
nice to meet you,nice to meet you.wav,a-z
welcome,welcome.wav,a-z
