﻿plane,plane.wav,a-z
helicopter,helicopter.wav,a-z
hot-air balloon,hot-air balloon.wav,a-z
taxi,taxi.wav,a-z
ship,ship.wav,a-z
train,train.wav,a-z
truck,truck.wav,a-z
subway,subway.wav,a-z
car,car.wav,a-z
fire truck,fire truck.wav,a-z
motorcycle,motorcycle.wav,a-z
bus,bus.wav,a-z
