﻿lune,lune.wav,a-z
prune,prune.wav,a-z
parle,parle.wav,a-z
parte,parte.wav,a-z
pure,pure.wav,a-z
pire,pire.wav,a-z
pur,pur.wav,a-z
mur,mur.wav,a-z
liste,liste.wav,a-z
piste,piste.wav,a-z
rime,rime.wav,a-z
prime,prime.wav,a-z
mime,mime.wav,a-z
mine,mine.wav,a-z
