﻿think,think.wav,a-z
both,both.wav,a-z
three,three.wav,a-z
thank you,thank you.wav,a-z
thin,thin.wav,a-z
bathtub,bathtub.wav,a-z
teeth,teeth.wav,a-z
thousand,thousand.wav,a-z
thread,thread.wav,a-z
thirsty,thirsty.wav,a-z
throat,throat.wav,a-z
