﻿feu de circulation,feu de circulation.wav,a-z
lampadaire,lampadaire.wav,a-z
trottoir,trottoir.wav,a-z
poussette,poussette.wav,a-z
rond-point,rond-point.wav,a-z
arbre,arbre.wav,a-z
klaxon,klaxon.wav,a-z
