﻿pleasure,pleasure.wav,a-z
vision,vision.wav,a-z
decision,decision.wav,a-z
usually,usually.wav,a-z
television,television.wav,a-z
measure,measure.wav,a-z
luxury,luxury.wav,a-z
conclusion,conclusion.wav,a-z
version,version.wav,a-z
