﻿cape,cape.wav,a-z
carpe,carpe.wav,a-z
pâle,pale.wav,a-z
parle,parle.wav,a-z
pâte,pate.wav,a-z
plate,plate.wav,a-z
lève,leve.wav,a-z
lèvre,levre.wav,a-z
lace,lace.wav,a-z
place,place.wav,a-z
lave,lave.wav,a-z
larve,larve.wav,a-z
