﻿le chapeau,le chapeau.wav,a-z
la chaussure,la chaussure.wav,a-z
la gauche,la gauche.wav,a-z
le manteau,le manteau.wav,a-z
le rideau,le rideau.wav,a-z
le chameau,le chameau.wav,a-z
la peau,la peau.wav,a-z
le château,le chateau.wav,a-z
