﻿salade,salade.wav,a-z
balade,balade.wav,a-z
malade,malade.wav,a-z
bolide,bolide.wav,a-z
solide,solide.wav,a-z
banal,banal.wav,a-z
canal,canal.wav,a-z
dupe,dupe.wav,a-z
dune,dune.wav,a-z
dure,dure.wav,a-z
dire,dire.wav,a-z
rire,rire.wav,a-z
rive,rive.wav,a-z
tenir,tenir.wav,a-z
venir,venir.wav,a-z
note,note.wav,a-z
notre,notre.wav,a-z
final,final.wav,a-z
fanal,fanal.wav,a-z
