﻿la guitare,la guitare.wav,a-z
une bague,une bague.wav,a-z
la fatigue,la fatigue.wav,a-z
une langue,une langue.wav,a-z
la guirlande,la guirlande.wav,a-z
un guide,un guide.wav,a-z
une guenon,une guenon.wav,a-z
une guimauve,une guimauve.wav,a-z
