﻿des ciseaux,des ciseaux.wav,a-z
le cinéma,le cinema.wav,a-z
une cigale,une cigale.wav,a-z
la cire,la cire.wav,a-z
un citron,un citron.wav,a-z
merci,merci.wav,a-z
une cigogne,une cigogne.wav,a-z
une sorcière,une sorciere.wav,a-z
