﻿un phoque,un phoque.wav,a-z
un phare,un phare.wav,a-z
un téléphone,un telephone.wav,a-z
une photo,une photo.wav,a-z
l'orthographe,l'orthographe.wav,a-z
une pharmacie,une pharmacie.wav,a-z
une phrase,une phrase.wav,a-z
un orphelin,un orphelin.wav,a-z
