﻿un aigle,un aigle.wav,a-z
un âne,un ane.wav,a-z
un éclair,un eclair.wav,a-z
un invité,un invite.wav,a-z
un orage,un orage.wav,a-z
ton insecte,ton insecte.wav,a-z
un abri,un abri.wav,a-z
mon oiseau,mon oiseau.wav,a-z
mon avion,mon avion.wav,a-z
ton élève,ton eleve.wav,a-z
en Afrique,en Afrique.wav,a-z
mon orange,mon orange.wav,a-z
son hirondelle,son hirondelle.wav,a-z
ton ami,ton ami.wav,a-z
ton escargot,ton escargot.wav,a-z
ton enfant,ton enfant.wav,a-z
un homme,un homme.wav,a-z
en Italie,en Italie.wav,a-z
son image,son image.wav,a-z
ton abeille,ton abeille.wav,a-z
son éponge,son eponge.wav,a-z
un habit,un habit.wav,a-z
son usine,son usine.wav,a-z
