﻿large,large.wav,a-z
just,just.wav,a-z
change,change.wav,a-z
jam,jam.wav,a-z
jupiter,jupiter.wav,a-z
jet,jet.wav,a-z
join,join.wav,a-z
judge,judge.wav,a-z
joke,joke.wav,a-z
job,job.wav,a-z
garbage,garbage.wav,a-z
