﻿nine,nine.wav,a-z
eye,eye.wav,a-z
diamond,diamond.wav,a-z
fine,fine.wav,a-z
ice cream,ice cream.wav,a-z
kite,kite.wav,a-z
like,like.wav,a-z
tiger,tiger.wav,a-z
triangle,triangle.wav,a-z
write,write.wav,a-z
