﻿rire,rire.wav,a-z
lire,lire.wav,a-z
rime,rime.wav,a-z
rite,rite.wav,a-z
dire,dire.wav,a-z
tire,tire.wav,a-z
frite,frite.wav,a-z
frire,frire.wav,a-z
brun,brun.wav,a-z
brute,brute.wav,a-z
bride,bride.wav,a-z
brode,brode.wav,a-z
lime,lime.wav,a-z
miel,miel.wav,a-z
