﻿banane,banane.wav,a-z
carotte,carotte.wav,a-z
biscuit,biscuit.wav,a-z
soupe,soupe.wav,a-z
fruit,fruit.wav,a-z
légume,legume.wav,a-z
confiture,confiture.wav,a-z
yaourt,yaourt.wav,a-z
pomme,pomme.wav,a-z
oeuf,oeuf.wav,a-z
jus d'orange,jus d'orange.wav,a-z
lait,lait.wav,a-z
fromage,fromage.wav,a-z
pain,pain.wav,a-z
pizza,pizza.wav,a-z
chocolat,chocolat.wav,a-z
