﻿un,un.wav,a-z
deux,deux.wav,a-z
trois,trois.wav,a-z
quatre,quatre.wav,a-z
cinq,cinq.wav,a-z
six,six.wav,a-z
sept,sept.wav,a-z
huit,huit.wav,a-z
neuf,neuf.wav,a-z
dix,dix.wav,a-z
zéro,zero.wav,a-z
