﻿sun,sun.wav,a-z
chest,chest.wav,a-z
missing,missing.wav,a-z
text,text.wav,a-z
pencil,pencil.wav,a-z
desk,desk.wav,a-z
celery,celery.wav,a-z
school bus,school bus.wav,a-z
circle,circle.wav,a-z
city,city.wav,a-z
