﻿une fille,une fille.wav,a-z
une chenille,une chenille.wav,a-z
une famille,une famille.wav,a-z
un papillon,un papillon.wav,a-z
une médaille,une medaille.wav,a-z
un caillou,un caillou.wav,a-z
une bouilloire,une bouilloire.wav,a-z
une paille,une paille.wav,a-z
