﻿une sandale,une sandale.wav,a-z
une tante,une tante.wav,a-z
un pantalon,un pantalon.wav,a-z
une maman,une maman.wav,a-z
un dimanche,un dimanche.wav,a-z
une lampe,une lampe.wav,a-z
une jambe,une jambe.wav,a-z
une chambre,une chambre.wav,a-z
